{
    "v": "5.7.1",
    "fr": 60,
    "ip": 0,
    "op": 16,
    "w": 600,
    "h": 600,
    "nm": "Close OUT",
    "ddd": 0,
    "assets": [
        {
            "id": "comp_0",
            "layers": [
                {
                    "ddd": 0,
                    "ind": 1,
                    "ty": 4,
                    "nm": "Shape 2",
                    "sr": 1,
                    "ks": {
                        "o": { "a": 0, "k": 100, "ix": 16 },
                        "r": { "a": 0, "k": 0, "ix": 15 },
                        "p": { "a": 0, "k": [300, 300, 0], "ix": 2 },
                        "a": { "a": 0, "k": [0, 0, 0], "ix": 1 },
                        "s": { "a": 0, "k": [100, 100, 100], "ix": 6 }
                    },
                    "ao": 0,
                    "shapes": [
                        {
                            "ty": "gr",
                            "it": [
                                {
                                    "ind": 0,
                                    "ty": "sh",
                                    "ix": 1,
                                    "ks": {
                                        "a": 0,
                                        "k": {
                                            "i": [
                                                [0, 0],
                                                [0, 0]
                                            ],
                                            "o": [
                                                [0, 0],
                                                [0, 0]
                                            ],
                                            "v": [
                                                [65.625, -65.625],
                                                [-65.625, 65.625]
                                            ],
                                            "c": false
                                        },
                                        "ix": 2
                                    },
                                    "nm": "Tracé 1",
                                    "mn": "ADBE Vector Shape - Group",
                                    "hd": false
                                },
                                {
                                    "ty": "st",
                                    "c": { "a": 0, "k": [0, 0, 0, 1], "ix": 3 },
                                    "o": { "a": 0, "k": 100, "ix": 4 },
                                    "w": { "a": 0, "k": 10, "ix": 5 },
                                    "lc": 2,
                                    "lj": 2,
                                    "bm": 0,
                                    "nm": "Contour 1",
                                    "mn": "ADBE Vector Graphic - Stroke",
                                    "hd": false
                                },
                                {
                                    "ty": "tr",
                                    "p": { "a": 0, "k": [0, 0], "ix": 2 },
                                    "a": { "a": 0, "k": [0, 0], "ix": 1 },
                                    "s": { "a": 0, "k": [300, 300], "ix": 3 },
                                    "r": { "a": 0, "k": 0, "ix": 6 },
                                    "o": { "a": 0, "k": 100, "ix": 7 },
                                    "sk": { "a": 0, "k": 0, "ix": 4 },
                                    "sa": { "a": 0, "k": 0, "ix": 5 },
                                    "nm": "Transformer "
                                }
                            ],
                            "nm": "Shape",
                            "np": 2,
                            "cix": 2,
                            "bm": 0,
                            "ix": 1,
                            "mn": "ADBE Vector Group",
                            "hd": false
                        }
                    ],
                    "ip": 0,
                    "op": 300,
                    "st": 0,
                    "bm": 0
                },
                {
                    "ddd": 0,
                    "ind": 2,
                    "ty": 4,
                    "nm": "Shape",
                    "sr": 1,
                    "ks": {
                        "o": { "a": 0, "k": 100, "ix": 16 },
                        "r": { "a": 0, "k": 0, "ix": 15 },
                        "p": { "a": 0, "k": [300, 300, 0], "ix": 2 },
                        "a": { "a": 0, "k": [0, 0, 0], "ix": 1 },
                        "s": { "a": 0, "k": [100, 100, 100], "ix": 6 }
                    },
                    "ao": 0,
                    "shapes": [
                        {
                            "ty": "gr",
                            "it": [
                                {
                                    "ind": 0,
                                    "ty": "sh",
                                    "ix": 1,
                                    "ks": {
                                        "a": 0,
                                        "k": {
                                            "i": [
                                                [0, 0],
                                                [0, 0]
                                            ],
                                            "o": [
                                                [0, 0],
                                                [0, 0]
                                            ],
                                            "v": [
                                                [-65.625, -65.625],
                                                [65.625, 65.625]
                                            ],
                                            "c": false
                                        },
                                        "ix": 2
                                    },
                                    "nm": "Tracé 1",
                                    "mn": "ADBE Vector Shape - Group",
                                    "hd": false
                                },
                                {
                                    "ty": "st",
                                    "c": { "a": 0, "k": [0, 0, 0, 1], "ix": 3 },
                                    "o": { "a": 0, "k": 100, "ix": 4 },
                                    "w": { "a": 0, "k": 10, "ix": 5 },
                                    "lc": 2,
                                    "lj": 2,
                                    "bm": 0,
                                    "nm": "Contour 1",
                                    "mn": "ADBE Vector Graphic - Stroke",
                                    "hd": false
                                },
                                {
                                    "ty": "tr",
                                    "p": { "a": 0, "k": [0, 0], "ix": 2 },
                                    "a": { "a": 0, "k": [0, 0], "ix": 1 },
                                    "s": { "a": 0, "k": [300, 300], "ix": 3 },
                                    "r": { "a": 0, "k": 0, "ix": 6 },
                                    "o": { "a": 0, "k": 100, "ix": 7 },
                                    "sk": { "a": 0, "k": 0, "ix": 4 },
                                    "sa": { "a": 0, "k": 0, "ix": 5 },
                                    "nm": "Transformer "
                                }
                            ],
                            "nm": "Shape",
                            "np": 2,
                            "cix": 2,
                            "bm": 0,
                            "ix": 1,
                            "mn": "ADBE Vector Group",
                            "hd": false
                        }
                    ],
                    "ip": 0,
                    "op": 300,
                    "st": 0,
                    "bm": 0
                }
            ]
        }
    ],
    "layers": [
        {
            "ddd": 0,
            "ind": 1,
            "ty": 0,
            "nm": "Cross",
            "refId": "comp_0",
            "sr": 1,
            "ks": {
                "o": { "a": 0, "k": 100, "ix": 11 },
                "r": {
                    "a": 1,
                    "k": [
                        {
                            "i": { "x": [0.833], "y": [1] },
                            "o": { "x": [0.167], "y": [0.167] },
                            "t": 0,
                            "s": [90]
                        },
                        { "t": 15, "s": [0] }
                    ],
                    "ix": 10
                },
                "p": { "a": 0, "k": [300, 300, 0], "ix": 2 },
                "a": { "a": 0, "k": [300, 300, 0], "ix": 1 },
                "s": { "a": 0, "k": [100, 100, 100], "ix": 6 }
            },
            "ao": 0,
            "w": 600,
            "h": 600,
            "ip": 0,
            "op": 300,
            "st": 0,
            "bm": 0
        }
    ],
    "markers": []
}
