<?xml version="1.0" encoding="UTF-8"?>
<svg width="52px" height="52px" viewBox="0 0 52 52" version="1.1" xmlns="http://www.w3.org/2000/svg" xmlns:xlink="http://www.w3.org/1999/xlink">
    <title>Group Copy</title>
    <defs>
        <circle id="path-1" cx="18" cy="18" r="18"></circle>
        <filter x="-33.3%" y="-33.3%" width="166.7%" height="166.7%" filterUnits="objectBoundingBox" id="filter-2">
            <feOffset dx="0" dy="0" in="SourceAlpha" result="shadowOffsetOuter1"></feOffset>
            <feGaussianBlur stdDeviation="4" in="shadowOffsetOuter1" result="shadowBlurOuter1"></feGaussianBlur>
            <feColorMatrix values="0 0 0 0 0   0 0 0 0 0   0 0 0 0 0  0 0 0 0.302802666 0" type="matrix" in="shadowBlurOuter1"></feColorMatrix>
        </filter>
        <rect id="path-3" x="0" y="0" width="18" height="18"></rect>
        <filter id="filter-5">
            <feColorMatrix in="SourceGraphic" type="matrix" values="0 0 0 0 1.000000 0 0 0 0 1.000000 0 0 0 0 1.000000 0 0 0 1.000000 0"></feColorMatrix>
        </filter>
    </defs>
    <g id="Page-1" stroke="none" stroke-width="1" fill="none" fillRule="evenodd">
        <g id="Centre-de-notification-1.1.3" transform="translate(-289.000000, -385.000000)">
            <g id="Group-Copy" transform="translate(297.000000, 393.000000)">
                <g id="Oval">
                    <use fill="black" fill-opacity="1" filter="url(#filter-2)" xlink:href="#path-1"></use>
                    <use fill="#878787" fillRule="evenodd" xlink:href="#path-1"></use>
                </g>
                <g id="Icon/base/chevron-right" transform="translate(8.000000, 9.000000)">
                    <mask id="mask-4" fill="white">
                        <use xlink:href="#path-3"></use>
                    </mask>
                    <g id="Background"></g>
                    <g filter="url(#filter-5)" id="Shape-Copy-2" strokeLinecap="round" strokeLinejoin="round">
                        <g mask="url(#mask-4)">
                            <g transform="translate(5.400000, 2.700000)" id="Shape-Copy" stroke="#000000">
                                <path d="M7.2,0 L0.10668297,6.06110575 C0.0393236737,6.11873148 0,6.20678864 0,6.3 C0,6.39321136 0.0393236737,6.48126852 0.10668297,6.53889425 L7.19944112,12.6"></path>
                            </g>
                        </g>
                    </g>
                </g>
            </g>
        </g>
    </g>
</svg>
